…
select_data <- select_data %>% select(!(logical_variable_names))
```



## Summarize findings using tables, charts, or heatmaps to visualize missingness.


``` r
# Missing data table
missing_table
```

```
## # A tibble: 195 × 3
##    variable                       n_miss pct_miss
##    <chr>                           <int>    <num>
##  1 DIS_MH_BIPOLAR_EVER             41171    100. 
##  2 DIS_GEN_DS_EVER                 41143     99.9
##  3 DIS_GEN_AIS_EVER                41143     99.9
##  4 DIS_GEN_HEMOPHILIA_EVER         41143     99.9
##  5 DIS_GEN_KS_EVER                 41143     99.9
##  6 DIS_GEN_TS_EVER                 41143     99.9
##  7 DIS_GEN_CAH_EVER                41141     99.9
##  8 DIS_GEN_CF_EVER                 41138     99.9
##  9 DIS_GEN_THALASSEMIA_EVER        41107     99.8
## 10 DIS_CARDIO_PREM_HD_FEMALE_EVER  41081     99.7
## # ℹ 185 more rows
```
…
``` r
saveRDS(data_imp,file="data_imp.rds")

data_imp_c <- complete(data_imp)

miss_var_summary(select_data_less_85)
```

```
## # A tibble: 93 × 3
##    variable                  n_miss pct_miss
##    <chr>                      <int>    <num>
##  1 DIS_CARDIO_HD_EVER         24566     59.6
##  2 DIS_RESP_SLEEP_APNEA_EVER  23308     56.6
##  3 DIS_NEURO_MIGRAINE_EVER    22992     55.8
##  4 DIS_MH_ANXIETY_EVER        22966     55.8
##  5 DIS_MH_ADDICTION_EVER      22439     54.5
##  6 DIS_ENDO_HB_CHOL_EVER      22297     54.1
##  7 HS_PAP_EVER                16182     39.3
##  8 HS_MMG_EVER                15995     38.8
##  9 PM_BMI_SR                  11976     29.1
## 10 DIS_IBS_FAM_EVER           10867     26.4
## # ℹ 83 more rows
```

``` r
miss_var_summary(data_imp_c)
```

```
## # A tibble: 93 × 3
##    variable                n_miss pct_miss
##    <chr>                    <int>    <num>
##  1 ID                           0        0
##  2 ADM_STUDY_ID                 0        0
##  3 SDC_GENDER                   0        0
##  4 SDC_AGE_CALC                 0        0
##  5 SDC_MARITAL_STATUS           0        0
##  6 SDC_EDU_LEVEL                0        0
##  7 SDC_EDU_LEVEL_AGE            0        0
##  8 SDC_INCOME                   0        0
##  9 SDC_INCOME_IND_NB            0        0
## 10 SDC_HOUSEHOLD_ADULTS_NB      0        0
## # ℹ 83 more rows
```
…
